id,title,status
1,Электроника,"На складе №2"
2,Сантехника,"На складе №3"
3,Игрушки,"НА складе №1"
4,"Бытовая техника","На складе №2"
5," Телефоны","На складе №2"
6,Гигиена,"На складе №1"
7,Переферия,"На складе №3"
8,Спецодежда,"НА складе №4"
9,"Хоз товары","На складе №4"
10,"Рабочая сила",ytdfg
14,Лодка,"На складе"
